1,Scheibe,Scheibentyp0,,-1,WT
2,Anschluss,Anschlusstyp,,-1,CT
3,Elektroden,Elektrodentyp,,-1,ET
4,Phase 0:Vorhaltezeit,5000,ms,0,T
5,Phase 1: Ltdauer,10000,ms,1,T
6,Phase 1: Strom,40,A,1,I
7,Phase 1: Obere Toleranz IST-Strom/Soll-Strom,110,%,1,UL
8,Phase 1: Untere Toleranz IST-Strom/Soll-Strom,90,%,1,LL
9,Phase 1: Toleranzzeit frs Hochfahren,100,ms,1,ST
10,Phase 1: Zeitliche Verlngerung der Ltdauer wenn: Unterbrechung > Tu,500,ms,1,AT
11,Phase 2: Ltdauer,2000,ms,2,T
12,Phase 2: Strom,60,A,2,I
13,Phase 2: Obere Toleranz IST-Strom/Soll-Strom,110%,%,2,UL
14,Phase 2: Untere Toleranz IST-Strom/Soll-Strom,90%,%,2,LL
15,Phase 3: Khldauer,0,ms,3,T16
17,Phase 3: Obere Toleranz IST-Strom/Soll-Strom,150%,%,3,UL
18,Phase 3: Untere Toleranz IST-Strom/Soll-Strom,50%,%,3,LL
19,Phase 4: Khldauer Elektroden,4000,ms,4,T
20,mgliche Dauer (Tu) einer Unterbrechung ohne zustzliche Energieeinbringung,30,s,99,IT
21,Anzahl Fehlltungen bis passwortpflichtige Quittierung erscheint,10,,99,MNC
22,Anzahl Ltungen bis Elektrodenwechsel,200,,99,ERC
